---
http_interactions:
- request:
    method: get
    uri: http://api.bestbuy.com/v1/stores(area(80202,25))?apiKey=7a3heu7emrjz6qbsugmepbv6&format=json&pageSize=10&show=longName,storeType,phone,city,distance
    body:
      encoding: US-ASCII
      string: ''
    headers:
      Accept-Encoding:
      - gzip;q=1.0,deflate;q=0.6,identity;q=0.3
      Accept:
      - "*/*"
      User-Agent:
      - Ruby
  response:
    status:
      code: 200
      message: OK
    headers:
      Access-Control-Allow-Headers:
      - origin, x-requested-with, accept
      Access-Control-Allow-Methods:
      - GET
      Access-Control-Allow-Origin:
      - "*"
      Access-Control-Max-Age:
      - '3628800'
      Content-Type:
      - application/json; charset=UTF-8
      Date:
      - Thu, 23 Feb 2017 19:06:43 GMT
      Server:
      - Best Buy Public APIs
      X-Cache-Hit:
      - 'true'
      Content-Length:
      - '2080'
      Connection:
      - keep-alive
    body:
      encoding: UTF-8
      string: |-
        {
          "from": 1,
          "to": 10,
          "currentPage": 1,
          "total": 16,
          "totalPages": 2,
          "queryTime": "0.009",
          "totalTime": "0.024",
          "partial": false,
          "canonicalUrl": "/v1/stores(area(\"80202\",25))?show=longName,storeType,phone,city,distance&pageSize=10&format=json&apiKey=7a3heu7emrjz6qbsugmepbv6",
          "stores": [
            {
              "longName": "BEST BUY MOBILE - CHERRY CREEK SHOPPING CENTER",
              "storeType": "Mobile SAS",
              "phone": "303-270-9189",
              "city": "DENVER",
              "distance": 3.45
            },
            {
              "longName": "BEST BUY - BELMAR",
              "storeType": "Big Box",
              "phone": "303-742-8039",
              "city": "LAKEWOOD",
              "distance": 5.31
            },
            {
              "longName": "BEST BUY - COLORADO BLVD",
              "storeType": "Big Box",
              "phone": "303-758-5805",
              "city": "DENVER",
              "distance": 5.59
            },
            {
              "longName": "BEST BUY - DENVER WEST",
              "storeType": "Big Box",
              "phone": "303-273-5617",
              "city": "LAKEWOOD",
              "distance": 8.39
            },
            {
              "longName": "BEST BUY - WESTMINSTER",
              "storeType": "Big Box",
              "phone": "303-426-4434",
              "city": "WESTMINSTER",
              "distance": 8.52
            },
            {
              "longName": "BEST BUY - NORTHGLENN",
              "storeType": "Big Box",
              "phone": "303-252-8677",
              "city": "DENVER",
              "distance": 9.14
            },
            {
              "longName": "BEST BUY MOBILE - TOWN CENTER AT AURORA",
              "storeType": "Mobile SAS",
              "phone": "303-326-0848",
              "city": "AURORA",
              "distance": 9.73
            },
            {
              "longName": "BEST BUY - AURORA",
              "storeType": "Big Box",
              "phone": "303-338-5797",
              "city": "AURORA",
              "distance": 9.79
            },
            {
              "longName": "BEST BUY - LITTLETON",
              "storeType": "Big Box",
              "phone": "303-932-7830",
              "city": "LAKEWOOD",
              "distance": 10.44
            },
            {
              "longName": "BEST BUY - SOUTHGLENN",
              "storeType": "Big Box",
              "phone": "303-797-3246",
              "city": "CENTENNIAL",
              "distance": 11.02
            }
          ],
          "warnings": "Distances are in terms of miles (default)"
        }
    http_version: 
  recorded_at: Thu, 23 Feb 2017 19:06:37 GMT
- request:
    method: get
    uri: http://api.bestbuy.com/v1/stores(area(80202,25))?apiKey=7a3heu7emrjz6qbsugmepbv6&format=json&pageSize=10&show=longName,storeType,phone,city,distance
    body:
      encoding: US-ASCII
      string: ''
    headers:
      Accept-Encoding:
      - gzip;q=1.0,deflate;q=0.6,identity;q=0.3
      Accept:
      - "*/*"
      User-Agent:
      - Ruby
  response:
    status:
      code: 200
      message: OK
    headers:
      Access-Control-Allow-Headers:
      - origin, x-requested-with, accept
      Access-Control-Allow-Methods:
      - GET
      Access-Control-Allow-Origin:
      - "*"
      Access-Control-Max-Age:
      - '3628800'
      Content-Type:
      - application/json; charset=UTF-8
      Date:
      - Thu, 23 Feb 2017 19:06:47 GMT
      Server:
      - Best Buy Public APIs
      X-Cache-Hit:
      - 'true'
      Content-Length:
      - '2080'
      Connection:
      - keep-alive
    body:
      encoding: UTF-8
      string: |-
        {
          "from": 1,
          "to": 10,
          "currentPage": 1,
          "total": 16,
          "totalPages": 2,
          "queryTime": "0.009",
          "totalTime": "0.024",
          "partial": false,
          "canonicalUrl": "/v1/stores(area(\"80202\",25))?show=longName,storeType,phone,city,distance&pageSize=10&format=json&apiKey=7a3heu7emrjz6qbsugmepbv6",
          "stores": [
            {
              "longName": "BEST BUY MOBILE - CHERRY CREEK SHOPPING CENTER",
              "storeType": "Mobile SAS",
              "phone": "303-270-9189",
              "city": "DENVER",
              "distance": 3.45
            },
            {
              "longName": "BEST BUY - BELMAR",
              "storeType": "Big Box",
              "phone": "303-742-8039",
              "city": "LAKEWOOD",
              "distance": 5.31
            },
            {
              "longName": "BEST BUY - COLORADO BLVD",
              "storeType": "Big Box",
              "phone": "303-758-5805",
              "city": "DENVER",
              "distance": 5.59
            },
            {
              "longName": "BEST BUY - DENVER WEST",
              "storeType": "Big Box",
              "phone": "303-273-5617",
              "city": "LAKEWOOD",
              "distance": 8.39
            },
            {
              "longName": "BEST BUY - WESTMINSTER",
              "storeType": "Big Box",
              "phone": "303-426-4434",
              "city": "WESTMINSTER",
              "distance": 8.52
            },
            {
              "longName": "BEST BUY - NORTHGLENN",
              "storeType": "Big Box",
              "phone": "303-252-8677",
              "city": "DENVER",
              "distance": 9.14
            },
            {
              "longName": "BEST BUY MOBILE - TOWN CENTER AT AURORA",
              "storeType": "Mobile SAS",
              "phone": "303-326-0848",
              "city": "AURORA",
              "distance": 9.73
            },
            {
              "longName": "BEST BUY - AURORA",
              "storeType": "Big Box",
              "phone": "303-338-5797",
              "city": "AURORA",
              "distance": 9.79
            },
            {
              "longName": "BEST BUY - LITTLETON",
              "storeType": "Big Box",
              "phone": "303-932-7830",
              "city": "LAKEWOOD",
              "distance": 10.44
            },
            {
              "longName": "BEST BUY - SOUTHGLENN",
              "storeType": "Big Box",
              "phone": "303-797-3246",
              "city": "CENTENNIAL",
              "distance": 11.02
            }
          ],
          "warnings": "Distances are in terms of miles (default)"
        }
    http_version: 
  recorded_at: Thu, 23 Feb 2017 19:06:37 GMT
recorded_with: VCR 3.0.3
